:2000000007520040096400400565004027000140430101406B0201404F0301405704014026
:20002000430501401B060140440701406C08014048090140590A0140590B0140710C0140FB
:20004000510D01406C0E01403E0F01405914014052150140201601404A1701403C180140B4
:2000600066190140651A0140531B014006400140114101400F4201400A430140064401408C
:20008000024501400F480140134901400B4C0140034D01400A5001400251014000400160AA
:2000A000091018C0194060046104806B836B840F89728A388B728D388E0F8F0F840F860FDF
:2000C0008738880F8A720604180A1F012001220A2C0D3002320C3401350138203E11403208
:2000E00049FF4AFF4BFF4DA04F015018540B580459045A045B045C115D115F0560406280EA
:2001000064406540668068406A506BA86C406D206E506FA80108042005140680070209202F
:200120000D080E4610821404150416021701180419091A081D041E441F102120245125581E
:20014000274229042B202C042E422F10308831083514360137403C113D043E804004421015
:20016000430447044C804E0456015714584059015B10632868026940750279408080814021
:200180008310C0F4C2F2C4F9CAF0CCF8CEF0D046D220D60DD806DE08E201020403080404C0
:2001A000070D0A020B080E0D0F081001170918051B072201230F27092B0830013101320419
:2001C000330234083504360237083A803B2A3E053F40404649FF4AFF4BFF4DA04F01501817
:2001E0005280580459045A045B045C115D115F016040628064406540668068406A506BA856
:200200006C406D206E506FA8810488148F0599089E02A30AA401A61CAC07B010B101B208E7
:20022000B308B401B502B606B704B820BE11BF44C042C502C6C5C70EC81DC9FFCAFFCBFF0D
:20024000CDAFCE07CF01D018D40BD804D904DA04DB04DC11DD11DF05E040E280E440E540B6
:20026000E680E840EA50EBA8EC40ED20EE50EFA803080460050A0A020E040F801032168012
:20028000180419011A021B581D021E141F80210122542505260127052A012C082E022FA036
:2002A0003210340435103704388039023DAE40044102450248204F205040510852205810FE
:2002C00059015A8061086220680269407680794084108A1090409180942095049610991A88
:2002E0009A019C449E029F01A008A150A320A601A910AA80C0F2C251C415CAE1CC64CEF91D
:20030000D085D220D60DD806DE08E209E6020040020304090610081C0A220C100D02101415
:2003200019011A201C301E0C2220242C2611301F33013440350236203E503F1440434105FC
:20034000450E460B470C481549FF4AFF4BFF4EF04F44500C5401580459045A045B045C0317
:200360005D335F0166C06A406B028101841485018643889889408A038CE08D078F18903109
:2003800091019202952296EC970899409A019D04A101A202A501A908AB21AD10AF80B01035
:2003A000B140B20FB380B53FB6E0B708B922BE41BF50D409D804D904DB04DF01002001426E
:2003C00002100450050408800B850E280F8010101302168019921E211F012120220426640B
:2003E00027402E862F0430203628374139803C883D223F804080410848204B40500453400B
:20040000580159A05A085D195E80670281108410850887448C048D608F0291809301942087
:200420009A10A010AC40AE04B701C0EFC27BC41CCAF0CCF4CEF8D003D208D6FFD810E206AE
:20044000E602819C8594870889088B408DD18F229510978C99A49B10A18CA310A561A71E29
:20046000A930AB8FAD9CB10FB3C1B530BB2CD440D904DB04DD40DF010410058006600D083F
:200480000E4514011510160917091C401D0C1E401F142098221823482420251029252A40EC
:2004A0002D042EA72F08321033083505374139143A023B403C983D02448045284DA84E083D
:2004C0004F405699600163286401661067208C2194709511960497089B409D0C9E829F017C
:2004E000A444A511A608AE01B021B120C0F0C2F0C4F0CAFFCCD6CEFFD0E0D230D87EEE809B
:200500000014011002C9040A051006510F10100111211226135A1502171D19631B14241F31
:200520002523274C281F29102D1030073260331F34183540368037203B083E043F504026E0
:20054000410542044403460E47C0482449FF4AFF4BFF4C624DA04EF04F41500C54095804A8
:2005600059045A045B045C565D565F016640670269106A306B106D106E106F128140822020
:200580008479852086068A598B1B8C7F902691099249942095609827999F9A509B609DFF4D
:2005A000A004A11BA402A5E0A71FA806A912ADF8AF07B103B207B380B43EB578B646B704B0
:2005C000B980BAA2BB20BF04D602D711D804D904DB04DC22DD20DF0100580380040406408C
:2005E00008150E8010A81714184019441A901B101C841D081E811F2020082211232126A4D7
:20060000281529422B102D802F183008310132503614370238103A0A3D813E044529492031
:200620004A044D404E0856815B205C025F54670268026A086B0870A8720A9140940A95993D
:200640009617970998829B149D809ED5A123A208A450A720C03FC21EC46ECA7FCCEFCED711
:20066000D0E0D230D6F4D8100401050109010A020C010D01130216021A04220428012F020F
:20068000300231013201340435023E113F1054185604580459045B045C365D205F018042A7
:2006A000812084018510894F8AB38B308CFF8D0390039170930F944C96A3970B98F3997807
:2006C0009A0C9B079D029E40A04FA290A404A501A80CA930AC08AD7FB138B27CB340B40FAC
:2006E000B503B68CB704B980BAAABF04C003C540C9FFCA07CBFFCC40CD20CEF0CF05D00857
:20070000D602D712D804D904DA04DB04DC66DD63DF01E040E1A8E240E320002003120450E9
:2007200005080640074008020A100B880D200E61112013011602172A181019141B011C4061
:200740001D201E221F112102230424842501260427012A802D482E202F2131043208330122
:2007600035043611374239983C803E4A3F1045084B304E8054085A025E08611063826D2085
:200780006F16762A77288340840886408C048D018E808F089380948A9501960497049880A9
:2007A0009D819E15A108A240A408A680A708AA04AB01B704C0F7C2F6C4FACA78CCF1CEFE4F
:2007C000D040D641D80DE010E240EE10023004300A100B530C300D310F4E100714081531CF
:2007E000160117C6183019AC1B431F0820302407280229302A042B402F8C300C3203330F6E
:20080000341035F03620378A380A3BA83E544006474049FF4A074BFF4C404D204EF04F0566
:2008200050085440580459045A045B045C335D565F01604061A86240632083808473860C5A
:200840008F809208951C9635972399409B039F1CA003A214A308A473A521A604A716A84A4D
:20086000A921AA14AB0EB010B180B20FB30FB460B51AB760B820B980BA08BB28BE11BF0184
:20088000C032C106C50EC6BCC80DC9FFCAFFCBFFCEF0CF44D00CD418D604D804D904DA0410
:2008A000DB04DC66DD66DF01E6C0EA40EB020108040A0580060408080AA00C080E94108091
:2008C00012081308140415011714181019281A401C801D081F522008210222482308254050
:2008E0002640271429182A022F0A32583680371438803A013D803E10403845024640480497
:2009000049104A204D204E1050A0550156025901624263446610672182028404874088406D
:2009200096C098809C20A4A4A501A628A882AA20AB10AD10AF20B090B201C0F4C27CC47E6F
:20094000CA37CC7ECE39D006D224D601D87DE620040C051406110D1C0F021009121013037C
:200960001510170C181019401A0C1D091E031F10201021202414281C290C2A022B112D104B
:20098000311F33403520361F3F1440354106450E46C0470B481949FF4AFF4BFF4EF04F4423
:2009A000500C5401580459045A045B045C265D625F0166C06A406B02821C85808C5C8E0316
:2009C000914093159461960E99339B0C9E239F08A208A503A714A861A933AA16AB04AD0A12
:2009E000AF34B00FB160B21AB30FB460B580B710B820B902BA0ABB08BE10BF50C002C60423
:200A0000C9FFCA07CBFFCC40CD20CEF0CF05D008D401D804D904DA04DB04DC22DD22DF01E8
:200A2000E040E1A8E240E32000080440074008200A820C080E220F02102011021208168059
:200A400017201A021B401C401D201E201F0A2004210222042508264027682A802B482C0808
:200A60002F22310A322033403601376038483F044108452048184A014B044F0250045320D4
:200A8000568058025A485B105D105E815F0881028C04C094C2ABC45ECA7DCCBFCE4AD02294
:200AA000D20CD6FF001D010D0330041D070208020A040C0D0E101002120D1514172B1802F6
:200AC00019241A081B1B1D081F34200122022610281D2C1D300F33033410373C3A023B80DD
:200AE0003E1056025720580459045B045C445D405F01808481D4840485C1870688568910F9
:200B00008A098BC48C848D1090079198923893239401950997C6980A99C49A109B109C6026
:200B2000A004A1D4A280A480A5E7A604A718A884ADC4AF10B080B27FB378B408B507B60249
:200B4000B798B808BB28BE51D409D804D904DB04DC44DD40DF010208035104040510060B76
:200B6000074008100A800EA80F0210281201130217191A801B101C081D401E201F0221046B
:200B800022802406264C27022C022D012E0830103110328836043712380239083C043D4066
:200BA0003E925CA05D045E0262806540680A69016A106B5972027A017B02802081408301B6
:200BC00084848504861089028F209104970199109A809D029F02A020A301A608A732A810E1
:200BE000AC88C0FFC2FAC47FCAD0CCEECEF3D6F0D818E201E480E840EA06870189068B082F
:200C0000900E910C950A97049B01A013A224A444A609A865AA1AAC40AF02B00FB10EB470A3
:200C2000B501B802B902BA20BF10D418D604D804D904DB04DC54DD30DF01052406420740AD
:200C40000A400E260F401180121813021510170119101A401D201E222004210226802802A3
:200C600029102A103008310233203564368038203B043F40461047124D844E0854205540FF
:200C80005680570559026084630165406D126E046F497602820183128402870489809340B4
:200CA000960499249E429F01A420A521A71CAD21B480C0F0C2F8C45FCA08CC77CE16D0E0D8
:200CC000D230D601D81DE202E480E606E81080018206852987108F20900A92119318951090
:200CE0009721983F9B029D319F08A304A43FA814AA49AB04AC20B018B138B220B301B407AD
:200D0000B506B640B908BF10C063C104C205C402C50CC70EC811C9FFCAFFCBFFCC62CDA0A8
:200D2000CEF0CF41D00CD608D804D904DA04DB04DC52DD92DF01E640E702E910EA30EB101B
:200D4000ED10EE10EF120102040A058006080A480C400D080E040F80100613081501181030
:200D600019111A401B801D281E201F1020042201232025102702280429012C402F19304040
:200D80003118320136103701388039013A083B023D203E063F80405444424528460847026A
:200DA00048144A014C404F4453045480561457405880624065206C056D816E046F09758004
:200DC0007602844087028A018D1290409208941A95999604973C988299209B089C049D833B
:200DE0009E549F02A006A102A201A410A540A610A788B220B340B504B681B701C0F8C2FA15
:200E0000C417CAF5CCAFCEFAD0F7D21CD608D828E6040001012005300640084F09100A90D1
:200E20000CF30E0C0F0B110212B314FF1570170F180419781B071C421D032008214F2330B1
:200E4000244C26A3280C297F2C032D01300F3104328C3340347C3538370339023A2A3F0442
:200E600056025712580459045B045C335D305F0181108306851C891C9B209C029D049E0520
:200E80009F19A001A202A403A720A803AD08AF06B003B320B404B503B71CBA08BF14C05460
:200EA000C102C206C403C50EC6C0C809C9FFCAFFCBFFCC62CDA0CEF0CF41D00CD608D8045C
:200EC000D904DA04DB04DC33DD93DF01E640E702E910EA30EB10ED10EE10EF12004802486E
:200EE000080809220B010F0110901180132015181640184019151C081F0A2082222425488C
:200F000026C02708280829012A402B4A2F223011311432883520366038283A823D103E045C
:200F20003F0144084502468047084D204E104F8057205A085C205D806405670169986A04BD
:200F400070947120720273208108880189808E10959898209C04A102A440A920AC80AD0886
:200F6000AF50B320B420C00FC28FC47FCA5DCC3FCEEFD0E0D230D632D830E2C0E480E84089
:200F8000EE023012350836203840CCF0CE100E0230123780620866088380862094409C1070
:200FA0009D08A402A620C280CC70D8C0E280E640062057048002830494409C109D089E082D
:200FC000A201A402A608C020D440E220E620910894409A209C109D089E08A201AE08B104F2
:200FE000EA10101070028C02C408DC01E402B010EA04060251048108820888049108944031
:201000009A209C109D089E08B601C080D420E6A00C0420405D016408840885018A209440E4
:201020009A209C04AC10B602C220C840D680D880E210E610EE4001200E08531062028204B0
:201040008B10C002C201D404D802E004AD20B202EC04007F08020A1B0C6C0E6C103D11016A
:201060001A391C2C1D0100FF01FF00000000224E2200007E0100E00E0000226E000A227489
:20108000000E22700001A27C220300040000C07E0800200E0404207A1004200AA0071F4806
:2010A0006018002800002EAA00000000360000000020E05C3AFFFFFF00AF070118008000A0
:2010C0000000000004040404111100014000800040408000400050A8402050A8000000008D
:2010E000000000000000000000000000B0C00002808030000A7F7180391F42200690004044
:20110000490034FF90002000B000006030C0800110C0000420C000080000809F07007800C8
:2011200080FF00000A0800000000101036052000040EFBDC3DFFFFFF2200F0080400000062
:201140004000000004040404100000010000C00040011011C00100114001400100000000B8
:201160000000000000000000000000001D0000000200A400C20008001D010006010062005B
:2011800002030D041D050002000420030D001000000000001D0000000000000000000F00A5
:2011A0001000E007000008800000100063042000050EDCBF3DFFFFFF2200F0080400000013
:2011C0000000022004040404000400010000C00040011011C0010011400140010000000062
:2011E00000000000000000000000000022D9500050D9220063200CD07208000422D8000181
:20120000010074007224004923005800722E00810011002200D1000800D9000000001F00DA
:2012200060F0000F080000E0000000003402100005BEFC0D1FFFFFFF2200F00C0400000017
:201240000000022404040404555500010000C00040011011C0010011400140010000000037
:201260000000000000000000000000000200806262006000000000003C00003C2400240008
:20128000000000000C00000C0400040000000000E00004FB7B0018000000000000020200B8
:2012A00000000000180020DCD400C000000000000000000000000000000000000000000086
:00000001FF
